<svg version="1.1" xmlns="http://www.w3.org/2000/svg" xmlns:xlink="http://www.w3.org/1999/xlink" x="0px" y="0px" viewBox="0 0 100 100" style="enable-background:new 0 0 100 100;" xml:space="preserve">
<style type="text/css">
	.st5{fill:#B4975A;}
</style>
<g id="icons">
	<path class="st5" d="M57.9,67.8c-0.1-2.7-0.3-6.9-2.7-10.4c0,0-0.8-1-2.5-1.7c0,0-3.3-1-4.8-2.1c0,0-0.1-0.1-0.1-0.1l-1.1-0.3
		c1.3-1.5,2.2-3.4,2.5-5c0.3-0.3,0.5-0.8,0.6-1.5c0.2-0.8,0.3-2-0.2-2.7c0,0,0-0.1-0.1-0.1c0.4-1.5,1.1-4.1-1.1-6.5
		c-1.3-1.3-3-2-4.5-2.5c-4.2-1.4-7.8,0.2-9.5,4.3c-0.3,0.7-0.7,2.2-0.1,4.7c0,0,0,0,0,0.1c-0.5,0.7-0.3,1.9-0.1,2.7l0.5,0l-0.5,0.1
		c0.1,0.6,0.3,1,0.6,1.3c0.3,1.9,1.3,3.6,2.5,4.9c-0.3,0.1-0.7,0.2-1,0.4c0,0-0.1,0-0.1,0.1c-1.5,1.1-4.8,2.1-4.8,2.1
		c-1.7,0.6-2.4,1.6-2.5,1.7c-2.4,3.5-2.5,7.7-2.7,10.4l0,0.1c-0.1,1.8,0.3,2.9,1.1,3.2c3,1.2,8.8,1.8,14.7,1.8
		c5.8,0,11.7-0.6,14.7-1.8c0.8-0.3,1.2-1.4,1.1-3.2L57.9,67.8z M35.8,47.7c-0.1-0.1-0.3-0.4-0.4-1c0,0,0-0.1,0-0.1
		c-0.1-0.5-0.3-1.6-0.1-1.9c0,0,0.1-0.1,0.1-0.1c0.2-0.1,0.2-0.3,0.2-0.5c-0.7-2.4-0.3-3.8-0.1-4.3c1.1-2.7,3.2-4.1,5.7-4.1
		c0.8,0,1.6,0.1,2.5,0.4c1.4,0.5,3,1.1,4.1,2.2c1.9,2,1.3,4.1,0.8,5.6l-0.1,0.2c0,0.2,0,0.4,0.1,0.5c0,0,0.1,0.1,0.1,0.1
		c0,0,0.1,0.1,0.1,0.1c0.1,0.2,0.3,0.7,0,1.9c-0.1,0.6-0.3,1-0.5,1.1c-0.1,0.1-0.1,0.2-0.1,0.3c-0.3,1.6-1.3,3.7-2.8,5.1
		c0,0-0.1,0-0.1,0.1c-0.9,0.8-2,1.3-3.2,1.4c-2.4,0.1-5.7-2.8-6.2-6.5C36,47.9,35.9,47.8,35.8,47.7z M56.5,70.2
		c-5.9,2.4-22.7,2.4-28.6,0c-0.1-0.1-0.6-0.4-0.5-2.2l0-0.1c0.1-2.6,0.3-6.6,2.5-9.9c0,0,0.6-0.8,2-1.3c0.1,0,3.4-1,5-2.2
		c0.7-0.2,1.2-0.4,1.5-0.5c1.2,1,2.5,1.6,3.8,1.6c0.1,0,0.1,0,0.2,0c1.4-0.1,2.6-0.7,3.6-1.5l1.5,0.5c1.6,1.1,4.9,2.1,5,2.2
		c1.4,0.5,2,1.3,2,1.3c2.2,3.3,2.4,7.2,2.5,9.9l0,0.1C57,69.8,56.6,70.1,56.5,70.2z"/>
	<path class="st5" d="M70,26.2H55.4c-1.3,0-2.4,1.1-2.4,2.4v7.6c0,1.3,1,2.4,2.3,2.4v3.6c0,0.2,0.1,0.4,0.3,0.5c0.1,0,0.1,0,0.2,0
		c0.1,0,0.3-0.1,0.4-0.1l4-4h10c1.4,0,2.4-1.1,2.4-2.4v-7.6C72.5,27.3,71.4,26.2,70,26.2z M71.5,36.3c0,0.8-0.7,1.4-1.4,1.4H59.8
		c-0.1,0-0.3,0.1-0.4,0.1l-3.3,3.3v-2.9c0-0.3-0.2-0.5-0.5-0.5h-0.3c-0.8,0-1.4-0.6-1.4-1.4v-7.6c0-0.8,0.6-1.4,1.4-1.4H70
		c0.8,0,1.4,0.6,1.4,1.4V36.3z"/>
</g>
</svg>
