<svg version="1.1" xmlns="http://www.w3.org/2000/svg" xmlns:xlink="http://www.w3.org/1999/xlink" x="0px" y="0px" viewBox="0 0 100 100" enable-background="new 0 0 100 100" xml:space="preserve">
	<path fill-rule="evenodd" clip-rule="evenodd" fill="none" stroke="#b4975a" stroke-width="2" stroke-miterlimit="10" d="M45.6,37.7h10.7v41H45.6V37.7z"/>
	<path fill-rule="evenodd" clip-rule="evenodd" fill="none" stroke="#b4975a" stroke-width="2" stroke-miterlimit="10" d="M22.4,37.7h55.2v41H22.4V37.7z"/>
	<path fill-rule="evenodd" clip-rule="evenodd" fill="none" stroke="#b4975a" stroke-width="2" stroke-miterlimit="10" d="M18.5,37.7h63l0,10.7h-63V37.7z"/>
	<path fill-rule="evenodd" clip-rule="evenodd" fill="none" stroke="#b4975a" stroke-width="2" stroke-miterlimit="10" d="M43.7,37.7c0,0-7.7-10.6-11.6-7.8s4.8,7.8,4.8,7.8"/>
	<path fill-rule="evenodd" clip-rule="evenodd" fill="none" stroke="#b4975a" stroke-width="2" stroke-miterlimit="10" d="M50.5,37.7c0,0-14.9-19.6-23.3-13.6s3.9,13.6,3.9,13.6"/>
	<path fill-rule="evenodd" clip-rule="evenodd" fill="none" stroke="#b4975a" stroke-width="2" stroke-miterlimit="10" d="M69.9,37.7c0,0,12.2-7.5,3.9-13.6S50.5,37.7,50.5,37.7"/>
	<path fill-rule="evenodd" clip-rule="evenodd" fill="none" stroke="#b4975a" stroke-width="2" stroke-miterlimit="10" d="M64.1,37.7c0,0,8.7-4.9,4.8-7.8s-11.6,7.8-11.6,7.8"/>
</svg>
