<svg version="1.1" xmlns="http://www.w3.org/2000/svg" xmlns:xlink="http://www.w3.org/1999/xlink" x="0px" y="0px" viewBox="0 0 100 100" style="enable-background:new 0 0 100 100;" xml:space="preserve">
	<path fill="#B4975A" d="M25.5,49.6l24.7,24.7c0.7,0.7,1.7,0.8,2.6,0.3c1.7-1.1,4-1.1,5.7,0c0.3,0.2,0.7,0.3,1.1,0.3
	c0.5,0,1.1-0.2,1.4-0.6L73.3,62c0.7-0.7,0.8-1.8,0.3-2.6c-1.1-1.7-1.1-3.8-0.1-5.5c0.1-0.1,0.1-0.1,0.1-0.2
	c0.5-0.8,0.4-1.9-0.3-2.5L48.6,26.5c-0.7-0.7-1.8-0.8-2.6-0.3c-1.7,1.1-4,1.1-5.7,0c-0.8-0.5-1.9-0.4-2.6,0.3L25.5,38.8
	c-0.7,0.7-0.8,1.8-0.3,2.6c1.1,1.7,1.1,4,0,5.7C24.7,47.8,24.8,48.9,25.5,49.6z M26.1,47.6c1.3-2.1,1.3-4.7,0-6.8
	c-0.3-0.4-0.2-1,0.1-1.3l12.3-12.3c0.3-0.3,0.9-0.4,1.3-0.1c2,1.3,4.8,1.3,6.8,0c0.4-0.3,1-0.2,1.3,0.1l24.7,24.7
	c0.4,0.4,0.4,0.9,0.1,1.3c0,0,0,0,0,0c0,0,0,0.1-0.1,0.1c-1.2,2-1.2,4.6,0.1,6.6c0.3,0.4,0.2,1-0.1,1.3L60.3,73.6
	C60,73.9,59.4,74,59,73.7c-1-0.6-2.2-1-3.4-1c-1.2,0-2.4,0.3-3.4,1c-0.4,0.3-1,0.2-1.3-0.1L26.2,48.9C25.9,48.5,25.8,48,26.1,47.6 z"/>
	<path fill="#B4975A" d="M40.6,44.3c0.1,0.1,0.1,0.2,0.2,0.3l3.6,3.6l-1.5,12.4c0,0.3,0.1,0.6,0.3,0.8l1,1c0.2,0.2,0.5,0.3,0.7,0.3
	c0.1,0,0.1,0,0.2,0c0.3-0.1,0.6-0.3,0.7-0.6l3.9-8.6l1.9,1.9v4.4c0,0.3,0.1,0.5,0.3,0.7l0.7,0.7c0.2,0.2,0.6,0.3,0.9,0.3
	c0.3-0.1,0.6-0.3,0.7-0.6L56,57l3.9-1.7c0.3-0.1,0.5-0.4,0.6-0.7s0-0.7-0.3-0.9l-0.7-0.7c-0.2-0.2-0.4-0.3-0.7-0.3h-4.4l-1.9-1.9
	l8.6-3.9c0,0,0,0,0,0c0.3-0.1,0.5-0.4,0.6-0.7s0-0.7-0.3-0.9l-1-1c-0.2-0.2-0.5-0.3-0.8-0.3l-12.4,1.5l-3.6-3.6
	c-0.1-0.1-0.2-0.2-0.3-0.2l-2.4-1.1c-0.4-0.2-0.8-0.1-1.1,0.2c-0.3,0.3-0.4,0.8-0.2,1.1L40.6,44.3z M42.9,42.5l3.7,3.7
	c0.1,0.1,0.3,0.2,0.4,0.1l12.7-1.5l1,1c0,0,0,0,0,0l-9.3,4.2c-0.2,0.1-0.3,0.2-0.3,0.4c0,0.2,0,0.3,0.1,0.4l2.6,2.6
	c0.1,0.1,0.2,0.1,0.4,0.1l4.6,0l0.7,0.7l-4.1,1.8c-0.1,0.1-0.2,0.1-0.3,0.3l-1.8,4.1l-0.7-0.7v-4.6c0-0.1-0.1-0.3-0.1-0.4L50,52.3
	c-0.1-0.1-0.3-0.2-0.4-0.1c-0.2,0-0.3,0.1-0.4,0.3l-4.2,9.3l-1-1l1.5-12.7c0-0.2,0-0.3-0.1-0.4l-3.8-3.8l-1.1-2.5L42.9,42.5z"/>
</svg>
