<svg version="1.1" xmlns="http://www.w3.org/2000/svg" xmlns:xlink="http://www.w3.org/1999/xlink" x="0px" y="0px" viewBox="0 0 100 100" style="enable-background:new 0 0 100 100;" xml:space="preserve">
	<path display="inline" fill="none" stroke="#B4975A" stroke-width="2" d="M45.8,21.9h14c0.9,0,1.6,0.7,1.6,1.6v14
		c0,0.9-0.7,1.6-1.6,1.6h-14c-0.9,0-1.6-0.7-1.6-1.6v-14C44.3,22.6,45,21.9,45.8,21.9z"/>
	<path display="inline" fill="none" stroke="#B4975A" stroke-width="2" d="M24.6,21.9h14c0.9,0,1.6,0.7,1.6,1.6v14
		c0,0.9-0.7,1.6-1.6,1.6h-14c-0.9,0-1.6-0.7-1.6-1.6v-14C23,22.6,23.7,21.9,24.6,21.9z"/>
	<path display="inline" fill="none" stroke="#B4975A" stroke-width="2" d="M29.7,26.6h3.6c0.9,0,1.6,0.7,1.6,1.6v4.7
		c0,0.9-0.7,1.6-1.6,1.6h-3.6c-0.9,0-1.6-0.7-1.6-1.6v-4.7C28.2,27.3,28.9,26.6,29.7,26.6z"/>
	<path display="inline" fill="none" stroke="#B4975A" stroke-width="2" d="M24.6,43.2h14c0.9,0,1.6,0.7,1.6,1.6v14
		c0,0.9-0.7,1.6-1.6,1.6h-14c-0.9,0-1.6-0.7-1.6-1.6v-14C23,43.9,23.7,43.2,24.6,43.2z"/>
	<path display="inline" fill="none" stroke="#B4975A" stroke-width="2" d="M45.8,43.2h14c0.9,0,1.6,0.7,1.6,1.6v14
		c0,0.9-0.7,1.6-1.6,1.6h-14c-0.9,0-1.6-0.7-1.6-1.6v-14C44.3,43.9,45,43.2,45.8,43.2z"/>
	<circle display="inline" fill="#FFFFFF" stroke="#B4975A" stroke-width="2" cx="62.7" cy="64.2" r="15.3"/>
	<path display="inline" fill="none" stroke="#B4975A" stroke-width="2" d="M63.1,59.3v11.9 M63.1,71.2l-7.4-5.5 M63.1,71.2l7.1-5.5"/>
</svg>
