<svg version="1.1" xmlns="http://www.w3.org/2000/svg" xmlns:xlink="http://www.w3.org/1999/xlink" x="0px" y="0px" viewBox="0 0 100 100" style="enable-background:new 0 0 100 100;" xml:space="preserve">
<style type="text/css">
	.st5{fill:#B4975A;}
</style>
<g id="icons">
	<path class="st5" d="M78.4,41.4h-4.9l-4.9-15.5c-0.6-2-2.8-3.1-4.8-2.5L20.4,37c-1,0.3-1.8,1-2.3,1.9s-0.6,2-0.3,2.9l6.6,20.8v1.5
		v5.2V73c0,2.1,1.7,3.8,3.8,3.8h50.2c2.1,0,3.8-1.7,3.8-3.8v-3.7v-5.2v-19C82.2,43,80.5,41.4,78.4,41.4z M26.5,65.8h53.7V69H26.5
		V65.8z M80.2,45.1v18.7H26.5v-1.2c0,0,0-0.1,0-0.1V45.1c0-1,0.8-1.8,1.8-1.8h50.2C79.4,43.4,80.2,44.1,80.2,45.1z M19.9,41.2
		c-0.1-0.5-0.1-1,0.1-1.4c0.2-0.4,0.6-0.8,1.1-0.9l43.4-13.7c1-0.3,2,0.2,2.3,1.2l4.7,14.9H28.3c-2.1,0-3.8,1.7-3.8,3.8V56
		L19.9,41.2z M78.4,74.7H28.3c-1,0-1.8-0.8-1.8-1.8v-2h53.7v2C80.2,74,79.4,74.7,78.4,74.7z"/>
	<path class="st5" d="M60.7,34.6c0.7-0.2,1.2-0.6,1.4-1.2c0.5,0.6,1.4,0.8,2.2,0.6c1.2-0.3,2-1.5,1.7-2.7c-0.3-1.2-1.5-2-2.7-1.7
		c-0.8,0.2-1.4,0.8-1.6,1.6c-0.5-0.4-1.1-0.6-1.8-0.4c-1.1,0.3-1.7,1.3-1.5,2.4C58.5,34.2,59.6,34.9,60.7,34.6z"/>
	<path class="st5" d="M31.9,49.9h21.4c0.6,0,1-0.4,1-1s-0.4-1-1-1H31.9c-0.6,0-1,0.4-1,1S31.4,49.9,31.9,49.9z"/>
	<path class="st5" d="M71.6,59h5.3c0.6,0,1-0.4,1-1s-0.4-1-1-1h-5.3c-0.6,0-1,0.4-1,1S71.1,59,71.6,59z"/>
	<path class="st5" d="M31.9,54.2h32.2c0.6,0,1-0.4,1-1s-0.4-1-1-1H31.9c-0.6,0-1,0.4-1,1S31.4,54.2,31.9,54.2z"/>
</g>
</svg>
