<?xml version="1.0" encoding="utf-8"?>
<!-- Generator: Adobe Illustrator 19.2.1, SVG Export Plug-In . SVG Version: 6.00 Build 0)  -->
<svg version="1.1" id="icons" xmlns="http://www.w3.org/2000/svg" xmlns:xlink="http://www.w3.org/1999/xlink" x="0px" y="0px"
	 viewBox="0 0 100 100" style="enable-background:new 0 0 100 100;" xml:space="preserve">
<style type="text/css">
	.st0{fill:#ffffff;}
</style>
<path class="st0" d="M74.3,37.4c-2.6-11.1-13.4-19.1-25.8-19.1c-13.3,0-24.5,9.1-26.2,21.2c-2.6,2.7-4,6.3-3.8,10.1
	C18.9,57.6,22.8,62,29.2,62c1.6,0,2.9-1.3,2.9-2.9V40.8c0-1.6-1.3-2.9-2.9-2.9h-0.1v-1.1c2.3-5.5,6.8-12.6,19.4-12.6
	c9.6,0,15.8,4,19.4,12.6v1.1c-2.7,0.3-3.1,2.1-3.1,2.9v17.1c0,0.9,0.3,1.7,0.9,2.2c0.7,0.7,1.8,1.1,3.2,1.1c0.1,0,0.1,0,0.2,0
	l2.3-0.4c-1.8,7-7.3,12.3-14.7,14.4c-1.1-1.4-3.4-3.1-5.3-3.1h-4.7c-2.9,0-6,1.5-6,4.7v0.9c0,2.9,2.2,4.8,5.5,4.8h4.7
	c2.6,0,5.7-2.7,6.3-5.3c8.2-2.3,14.2-8.2,16.1-16c0.1-0.4,0.3-0.6,0.5-0.8c0,0,0,0,0,0c4.2-2.3,6.9-6.8,6.9-11.6
	C80.7,44.1,78.3,39.8,74.3,37.4z M50.9,80.4h-4.7c-1.7,0-3.5-0.7-3.5-2.8v-0.9c0-1.8,2.1-2.7,4-2.7h4.7c1.1,0,3.1,1.4,3.8,2.5
	C54.9,78.3,52.5,80.4,50.9,80.4z M73,58.5l-4.2,0.7c-0.8,0-1.4-0.2-1.7-0.5c-0.1-0.1-0.3-0.3-0.3-0.8V40.8c0-0.2,0-1,2.1-1
	c0.6,0,1-0.4,1-1v-2.2c0-0.1,0-0.3-0.1-0.4C65.9,26.8,59,22.2,48.5,22.2c-10.5,0-17.4,4.6-21.3,14c0,0.1-0.1,0.2-0.1,0.4v2.2
	c0,0.6,0.4,1,1,1h1.1c0.5,0,0.9,0.4,0.9,0.9v18.3c0,0.5-0.4,0.9-0.9,0.9c-6.7,0-8.5-5.8-8.8-10.6c-0.2-3.3,1.1-6.5,3.4-8.8
	c0.2-0.2,0.3-0.4,0.3-0.6C25.6,28.8,36,20.3,48.5,20.3c11.7,0,21.7,7.6,24,18c0.1,0.3,0.2,0.5,0.5,0.7c3.6,2,5.8,5.8,5.8,9.8
	C78.7,52.8,76.5,56.5,73,58.5z"/>
</svg>
